image_rotate/image_rotate.sim/sim_1/behav/xsim/simulate.log
Time resolution is 1 ps
original:
//////////////////
01 02 03 04 05 06 07 08 
09 0a 0b 0c 0d 0e 0f 10 
11 12 13 14 15 16 17 18 
19 1a 1b 1c 1d 1e 1f 20 
21 22 23 24 25 26 27 28 
29 2a 2b 2c 2d 2e 2f 30 
31 32 33 34 35 36 37 38 
39 3a 3b 3c 3d 3e 3f 40 
//////////////////
rotate CW result:
///////////
39 31 29 21 19 11 09 01 
3a 32 2a 22 1a 12 0a 02 
3b 33 2b 23 1b 13 0b 03 
3c 34 2c 24 1c 14 0c 04 
3d 35 2d 25 1d 15 0d 05 
3e 36 2e 26 1e 16 0e 06 
3f 37 2f 27 1f 17 0f 07 
40 38 30 28 20 18 10 08 
///////////
original:
//////////////////
01 02 03 04 05 06 07 08 
09 0a 0b 0c 0d 0e 0f 10 
11 12 13 14 15 16 17 18 
19 1a 1b 1c 1d 1e 1f 20 
21 22 23 24 25 26 27 28 
29 2a 2b 2c 2d 2e 2f 30 
31 32 33 34 35 36 37 38 
39 3a 3b 3c 3d 3e 3f 40 
//////////////////
rotate CCW result:
///////////
08 10 18 20 28 30 38 40 
07 0f 17 1f 27 2f 37 3f 
06 0e 16 1e 26 2e 36 3e 
05 0d 15 1d 25 2d 35 3d 
04 0c 14 1c 24 2c 34 3c 
03 0b 13 1b 23 2b 33 3b 
02 0a 12 1a 22 2a 32 3a 
01 09 11 19 21 29 31 39 
///////////
original:
//////////////////
01 02 03 04 05 06 07 08 
09 0a 0b 0c 0d 0e 0f 10 
11 12 13 14 15 16 17 18 
19 1a 1b 1c 1d 1e 1f 20 
21 22 23 24 25 26 27 28 
29 2a 2b 2c 2d 2e 2f 30 
31 32 33 34 35 36 37 38 
39 3a 3b 3c 3d 3e 3f 40 
//////////////////
mirror H result:
///////////
08 07 06 05 04 03 02 01 
10 0f 0e 0d 0c 0b 0a 09 
18 17 16 15 14 13 12 11 
20 1f 1e 1d 1c 1b 1a 19 
28 27 26 25 24 23 22 21 
30 2f 2e 2d 2c 2b 2a 29 
38 37 36 35 34 33 32 31 
40 3f 3e 3d 3c 3b 3a 39 
///////////
original:
//////////////////
01 02 03 04 05 06 07 08 
09 0a 0b 0c 0d 0e 0f 10 
11 12 13 14 15 16 17 18 
19 1a 1b 1c 1d 1e 1f 20 
21 22 23 24 25 26 27 28 
29 2a 2b 2c 2d 2e 2f 30 
31 32 33 34 35 36 37 38 
39 3a 3b 3c 3d 3e 3f 40 
//////////////////
mirror V result:
///////////
39 3a 3b 3c 3d 3e 3f 40 
31 32 33 34 35 36 37 38 
29 2a 2b 2c 2d 2e 2f 30 
21 22 23 24 25 26 27 28 
19 1a 1b 1c 1d 1e 1f 20 
11 12 13 14 15 16 17 18 
09 0a 0b 0c 0d 0e 0f 10 
01 02 03 04 05 06 07 08 
///////////
$finish called at time : 8655 ns : File "F:/VIVADO WORKSPACE/image_rotate/image_rotate.srcs/sim_1/new/image_rotate_tb.v" Line 141
